<?xml version="1.0" encoding="UTF-8" standalone="no"?>
<svg
   xmlns:dc="http://purl.org/dc/elements/1.1/"
   xmlns:cc="http://creativecommons.org/ns#"
   xmlns:rdf="http://www.w3.org/1999/02/22-rdf-syntax-ns#"
   xmlns:svg="http://www.w3.org/2000/svg"
   xmlns="http://www.w3.org/2000/svg"
   xmlns:xlink="http://www.w3.org/1999/xlink"
   xmlns:sodipodi="http://sodipodi.sourceforge.net/DTD/sodipodi-0.dtd"
   xmlns:inkscape="http://www.inkscape.org/namespaces/inkscape"
   width="16.0px"
   height="16.0px"
   viewBox="0 0 16.0 16.0"
   version="1.1"
   id="SVGRoot"
   sodipodi:docname="icon.svg"
   inkscape:version="1.0.1 (3bc2e813f5, 2020-09-07)"
   inkscape:export-filename="/home/jwestman/Documents/osm-in-realtime/public/logo512.png"
   inkscape:export-xdpi="3072.0002"
   inkscape:export-ydpi="3072.0002">
  <defs
     id="defs833">
    <linearGradient
       inkscape:collect="always"
       id="linearGradient1495">
      <stop
         style="stop-color:#ff4500;stop-opacity:1"
         offset="0"
         id="stop1491" />
      <stop
         style="stop-color:#aad3df;stop-opacity:1"
         offset="1"
         id="stop1493" />
    </linearGradient>
    <linearGradient
       inkscape:collect="always"
       xlink:href="#linearGradient1495"
       id="linearGradient1497"
       x1="3"
       y1="5"
       x2="11"
       y2="12"
       gradientUnits="userSpaceOnUse" />
    <clipPath
       clipPathUnits="userSpaceOnUse"
       id="clipPath1557">
      <circle
         style="fill:#aad3df;fill-opacity:1;stroke-width:35;stroke-linecap:round;stroke-linejoin:round;stroke-dashoffset:3"
         id="circle1559"
         cx="8"
         cy="8"
         r="7" />
    </clipPath>
  </defs>
  <sodipodi:namedview
     id="base"
     pagecolor="#ffffff"
     bordercolor="#666666"
     borderopacity="1.0"
     inkscape:pageopacity="0.0"
     inkscape:pageshadow="2"
     inkscape:zoom="11.2"
     inkscape:cx="1.0344974"
     inkscape:cy="8.7595834"
     inkscape:document-units="px"
     inkscape:current-layer="layer1"
     inkscape:document-rotation="0"
     showgrid="true"
     inkscape:window-width="1920"
     inkscape:window-height="1016"
     inkscape:window-x="0"
     inkscape:window-y="27"
     inkscape:window-maximized="1"
     inkscape:snap-bbox="true"
     inkscape:bbox-nodes="true"
     inkscape:snap-global="true">
    <inkscape:grid
       type="xygrid"
       id="grid1403"
       empspacing="4"
       visible="false" />
  </sodipodi:namedview>
  <metadata
     id="metadata836">
    <rdf:RDF>
      <cc:Work
         rdf:about="">
        <dc:format>image/svg+xml</dc:format>
        <dc:type
           rdf:resource="http://purl.org/dc/dcmitype/StillImage" />
        <dc:title></dc:title>
      </cc:Work>
    </rdf:RDF>
  </metadata>
  <g
     inkscape:label="Layer 1"
     inkscape:groupmode="layer"
     id="layer1">
    <circle
       style="fill:#aad3df;fill-opacity:1;stroke-width:35;stroke-linecap:round;stroke-linejoin:round;stroke-dashoffset:3"
       id="path1410"
       cx="8"
       cy="8"
       r="7" />
    <path
       id="path1527"
       clip-path="url(#clipPath1557)"
       style="fill:#ffffdf;fill-opacity:1;stroke:none;stroke-width:1px;stroke-linecap:butt;stroke-linejoin:miter;stroke-opacity:1"
       d="M 10,2 V -1 L 8,1 9,3 Z M 3,1 V 6 L 5,8 4,9 v 1 l 1,1 1,3 V 13 L 7,11 8,10 7,9 5,7 V 6 H 6 L 7,4 8,3 7,1 Z m 9,1 -1,2 h 1 l 1,-1 v 1 l -2,1 -1,1 1,1 1,-1 h 2 v 1 h 1 V 2 Z m 2,5 h -3 l -1,1 1,1 h 1 v 2 l 1,1 1,-1 V 10 L 15,8 Z M 11,5 10,4 v 1 z"
       sodipodi:nodetypes="cccccccccccccccccccccccccccccccccccccccccccccccccccc" />
    <path
       id="path1410-5"
       style="fill:none;fill-opacity:1;stroke:url(#linearGradient1497);stroke-width:1.75;stroke-linecap:round;stroke-linejoin:round;stroke-miterlimit:4;stroke-dasharray:none;stroke-dashoffset:3;stroke-opacity:1"
       d="M 11.537743,13 C 8.7763192,14.953841 4.9538414,14.299167 3,11.537743 1.0461585,8.7763192 1.7008333,4.9538415 4.4622571,3"
       sodipodi:nodetypes="csc" />
    <path
       style="fill:none;stroke:#ff4500;stroke-width:2;stroke-linecap:round;stroke-linejoin:round;stroke-miterlimit:4;stroke-dasharray:none;stroke-opacity:1"
       d="m 1.8983408,2.7200377 2.8284271,1e-7 v 2.828427"
       id="path1454" />
  </g>
</svg>
